\relax 
\providecommand\hyper@newdestlabel[2]{}
\catcode `"\active 
\catcode `-\active 
\providecommand\HyperFirstAtBeginDocument{\AtBeginDocument}
\HyperFirstAtBeginDocument{\ifx\hyper@anchor\@undefined
\global\let\oldcontentsline\contentsline
\gdef\contentsline#1#2#3#4{\oldcontentsline{#1}{#2}{#3}}
\global\let\oldnewlabel\newlabel
\gdef\newlabel#1#2{\newlabelxx{#1}#2}
\gdef\newlabelxx#1#2#3#4#5#6{\oldnewlabel{#1}{{#2}{#3}}}
\AtEndDocument{\ifx\hyper@anchor\@undefined
\let\contentsline\oldcontentsline
\let\newlabel\oldnewlabel
\fi}
\fi}
\global\let\hyper@last\relax 
\gdef\HyperFirstAtBeginDocument#1{#1}
\providecommand\HyField@AuxAddToFields[1]{}
\providecommand\HyField@AuxAddToCoFields[2]{}
\babel@aux{czech}{}
\babel@aux{czech}{}
\babel@aux{czech}{}
\@LN@col{1}
\babel@aux{czech}{}
\@LN@col{2}
\babel@aux{czech}{}
\@LN@col{1}
\babel@aux{czech}{}
\@writefile{toc}{\contentsline {paragraph}{Kl\'i\v cov\'a\ slova:}{vi}{paragraph*.1}}
\@writefile{toc}{\contentsline {paragraph}{Vedouc\IeC {\'\i }:}{vi}{paragraph*.2}}
\@LN@col{2}
\babel@aux{english}{}
\@writefile{toc}{\contentsline {paragraph}{Keywords:}{vi}{paragraph*.3}}
\@writefile{toc}{\contentsline {paragraph}{Title\ translation:}{vi}{paragraph*.4}}
\@LN@col{1}
\babel@aux{czech}{}
\@LN@col{2}
\@LN@col{1}
\@LN@col{2}
\@LN@col{1}
\babel@aux{czech}{}
\@LN@col{2}
\babel@aux{czech}{}
\babel@aux{english}{}
\babel@aux{czech}{}
\babel@aux{czech}{}
\babel@aux{czech}{}
\babel@aux{czech}{}
\@writefile{toc}{\contentsline {chapter}{\numberline {1}\IeC {\'U}vod}{1}{chapter.1}}
\@writefile{lof}{\addvspace {10\p@ }}
\@writefile{lot}{\addvspace {10\p@ }}
\@writefile{toc}{\contentsline {section}{\numberline {1.1}Motivace}{1}{section.1.1}}
\@writefile{toc}{\contentsline {section}{\numberline {1.2}C\IeC {\'\i }le}{2}{section.1.2}}
\citation{book:Disman}
\citation{book:Tahal}
\citation{book:Payne}
\citation{book:Svaricek}
\citation{book:Punch}
\@writefile{toc}{\contentsline {chapter}{\numberline {2}Popis probl\IeC {\'e}mu}{3}{chapter.2}}
\@writefile{lof}{\addvspace {10\p@ }}
\@writefile{lot}{\addvspace {10\p@ }}
\@writefile{toc}{\contentsline {section}{\numberline {2.1}Rozd\IeC {\v e}len\IeC {\'\i } dle metody sb\IeC {\v e}ru dat}{3}{section.2.1}}
\@writefile{toc}{\contentsline {section}{\numberline {2.2}Definice dotazn\IeC {\'\i }ku}{3}{section.2.2}}
\citation{url:management}
\citation{book:Rezankova}
\citation{url:Kohoutek}
\@writefile{toc}{\contentsline {section}{\numberline {2.3}Inteligentn\IeC {\'\i } dotazn\IeC {\'\i }k}{4}{section.2.3}}
\@writefile{toc}{\contentsline {subsection}{\numberline {2.3.1}Dotazov\IeC {\'a}n\IeC {\'\i }}{4}{subsection.2.3.1}}
\@writefile{toc}{\contentsline {subsection}{\numberline {2.3.2}Probl\IeC {\'e}my spojen\IeC {\'e} s~vypl\IeC {\v n}ov\IeC {\'a}n\IeC {\'\i }m dotazn\IeC {\'\i }k\IeC {\r u}}{4}{subsection.2.3.2}}
\citation{url:dotaznik}
\citation{url:Kohoutek}
\@writefile{toc}{\contentsline {section}{\numberline {2.4}Struktura dotazn\IeC {\'\i }ku}{5}{section.2.4}}
\@writefile{toc}{\contentsline {subsection}{\numberline {2.4.1}\IeC {\'U}vod}{5}{subsection.2.4.1}}
\@writefile{toc}{\contentsline {subsection}{\numberline {2.4.2}Ot\IeC {\'a}zky}{5}{subsection.2.4.2}}
\@writefile{toc}{\contentsline {section}{\numberline {2.5}Dal\IeC {\v s}\IeC {\'\i } pro n\IeC {\'a}s d\IeC {\r u}le\IeC {\v z}it\IeC {\'e} rozd\IeC {\v e}len\IeC {\'\i }}{5}{section.2.5}}
\citation{url:centrum}
\@writefile{toc}{\contentsline {section}{\numberline {2.6}Vyu\IeC {\v z}it\IeC {\'\i } test\IeC {\r u} a pr\IeC {\r u}zkum\IeC {\r u}}{6}{section.2.6}}
\@writefile{toc}{\contentsline {subsection}{\numberline {2.6.1}Testy}{6}{subsection.2.6.1}}
\@writefile{toc}{\contentsline {subsection}{\numberline {2.6.2}Pr\IeC {\r u}zkumy}{6}{subsection.2.6.2}}
\citation{url:Rod}
\citation{url:Brooke}
\citation{url:Sporka}
\@writefile{toc}{\contentsline {section}{\numberline {2.7}P\IeC {\v r}\IeC {\'\i }klady vyu\IeC {\v z}it\IeC {\'\i }}{7}{section.2.7}}
\@writefile{toc}{\contentsline {subsection}{\numberline {2.7.1}SUS: System usability scale}{7}{subsection.2.7.1}}
\newlabel{chap:sus}{{2.7.1}{7}{SUS: System usability scale}{subsection.2.7.1}{}}
\citation{url:Belbin}
\@writefile{lof}{\contentsline {figure}{\numberline {2.1}{\ignorespaces Ot\IeC {\'a}zky SUS - p\IeC {\v r}evzato z~prezentace od pana prof. Sporky\relax }}{8}{figure.2.1}}
\providecommand*\caption@xref[2]{\@setref\relax\@undefined{#1}}
\newlabel{SUS}{{2.1}{8}{Otázky SUS - převzato z~prezentace od pana prof. Sporky\relax }{figure.2.1}{}}
\@writefile{toc}{\contentsline {subsection}{\numberline {2.7.2}Belbin\IeC {\r u}v test rol\IeC {\'\i }}{8}{subsection.2.7.2}}
\@writefile{toc}{\contentsline {section}{\numberline {2.8}Existuj\IeC {\'\i }c\IeC {\'\i } programy}{9}{section.2.8}}
\@writefile{toc}{\contentsline {subsection}{\numberline {2.8.1}Prvn\IeC {\'\i } kolo hled\IeC {\'a}n\IeC {\'\i }}{10}{subsection.2.8.1}}
\@writefile{lof}{\contentsline {figure}{\numberline {2.2}{\ignorespaces Prvn\IeC {\'\i } kolo vyhled\IeC {\'a}v\IeC {\'a}n\IeC {\'\i }\relax }}{10}{figure.2.2}}
\newlabel{Prvni:vyhl}{{2.2}{10}{První kolo vyhledávání\relax }{figure.2.2}{}}
\@writefile{toc}{\contentsline {subsection}{\numberline {2.8.2}Survio}{11}{subsection.2.8.2}}
\@writefile{lof}{\contentsline {figure}{\numberline {2.3}{\ignorespaces U\IeC {\v z}ivatelsk\IeC {\'a} sekce - Survio\relax }}{11}{figure.2.3}}
\newlabel{survio}{{2.3}{11}{Uživatelská sekce - Survio\relax }{figure.2.3}{}}
\@writefile{toc}{\contentsline {subsubsection}{V\IeC {\'y}hody}{11}{figure.2.3}}
\@writefile{toc}{\contentsline {subsubsection}{Nev\IeC {\'y}hody}{11}{figure.2.3}}
\@writefile{toc}{\contentsline {subsection}{\numberline {2.8.3}Click4Survey}{12}{subsection.2.8.3}}
\@writefile{lof}{\contentsline {figure}{\numberline {2.4}{\ignorespaces U\IeC {\v z}ivatelsk\IeC {\'a} sekce Click4survey\relax }}{12}{figure.2.4}}
\newlabel{click4survey}{{2.4}{12}{Uživatelská sekce Click4survey\relax }{figure.2.4}{}}
\@writefile{toc}{\contentsline {subsubsection}{V\IeC {\'y}hody}{12}{figure.2.4}}
\@writefile{toc}{\contentsline {subsubsection}{Nev\IeC {\'y}hody}{12}{figure.2.4}}
\@writefile{toc}{\contentsline {subsection}{\numberline {2.8.4}Druh\IeC {\'e} kolo hled\IeC {\'a}n\IeC {\'\i }}{13}{subsection.2.8.4}}
\@writefile{lof}{\contentsline {figure}{\numberline {2.5}{\ignorespaces Druh\IeC {\'e} kolo vyhled\IeC {\'a}v\IeC {\'a}n\IeC {\'\i }\relax }}{13}{figure.2.5}}
\newlabel{Druhe:vyhl}{{2.5}{13}{Druhé kolo vyhledávání\relax }{figure.2.5}{}}
\@writefile{toc}{\contentsline {subsection}{\numberline {2.8.5}Typeform}{14}{subsection.2.8.5}}
\@writefile{lof}{\contentsline {figure}{\numberline {2.6}{\ignorespaces U\IeC {\v z}ivatelsk\IeC {\'a} sekce - Typeform\relax }}{14}{figure.2.6}}
\newlabel{typeform}{{2.6}{14}{Uživatelská sekce - Typeform\relax }{figure.2.6}{}}
\@writefile{toc}{\contentsline {subsubsection}{V\IeC {\'y}hody}{14}{figure.2.6}}
\@writefile{toc}{\contentsline {subsubsection}{Nev\IeC {\'y}hody}{14}{figure.2.6}}
\@writefile{toc}{\contentsline {subsection}{\numberline {2.8.6}Enalyzer}{15}{subsection.2.8.6}}
\@writefile{lof}{\contentsline {figure}{\numberline {2.7}{\ignorespaces U\IeC {\v z}ivatelsk\IeC {\'a} sekce - Enalyzer\relax }}{15}{figure.2.7}}
\newlabel{Enalyzer}{{2.7}{15}{Uživatelská sekce - Enalyzer\relax }{figure.2.7}{}}
\@writefile{toc}{\contentsline {subsubsection}{V\IeC {\'y}hody}{15}{figure.2.7}}
\@writefile{toc}{\contentsline {subsubsection}{Nev\IeC {\'y}hody}{16}{figure.2.7}}
\@writefile{toc}{\contentsline {subsection}{\numberline {2.8.7}Formul\IeC {\'a}\IeC {\v r}e Google}{16}{subsection.2.8.7}}
\@writefile{lof}{\contentsline {figure}{\numberline {2.8}{\ignorespaces Vytv\IeC {\'a}\IeC {\v r}en\IeC {\'\i } dotazn\IeC {\'\i }ku - Google forms\relax }}{16}{figure.2.8}}
\newlabel{GoogleForms}{{2.8}{16}{Vytváření dotazníku - Google forms\relax }{figure.2.8}{}}
\@writefile{toc}{\contentsline {subsubsection}{V\IeC {\'y}hody}{16}{figure.2.8}}
\@writefile{toc}{\contentsline {subsubsection}{Nev\IeC {\'y}hody}{17}{figure.2.8}}
\@writefile{toc}{\contentsline {section}{\numberline {2.9}Shrnut\IeC {\'\i }}{17}{section.2.9}}
\citation{url:Lucka}
\citation{url:Booch}
\citation{book:Jacobson}
\citation{url:Robertson}
\@writefile{toc}{\contentsline {chapter}{\numberline {3}Anal\IeC {\'y}za a n\IeC {\'a}vrh syst\IeC {\'e}mu}{19}{chapter.3}}
\@writefile{lof}{\addvspace {10\p@ }}
\@writefile{lot}{\addvspace {10\p@ }}
\newlabel{chap:design}{{3}{19}{Analýza a návrh systému}{chapter.3}{}}
\@writefile{toc}{\contentsline {section}{\numberline {3.1}Po\IeC {\v z}adavky}{19}{section.3.1}}
\@writefile{toc}{\contentsline {section}{\numberline {3.2}Funk\IeC {\v c}n\IeC {\'\i } po\IeC {\v z}adavky}{20}{section.3.2}}
\@writefile{toc}{\contentsline {subsection}{\numberline {3.2.1}Spr\IeC {\'a}va dotazn\IeC {\'\i }ku}{20}{subsection.3.2.1}}
\@writefile{toc}{\contentsline {subsection}{\numberline {3.2.2}Vypln\IeC {\v e}n\IeC {\'\i } dotazn\IeC {\'\i }ku}{20}{subsection.3.2.2}}
\citation{url:framework}
\citation{book:Bittner}
\@writefile{toc}{\contentsline {section}{\numberline {3.3}Nefunk\IeC {\v c}n\IeC {\'\i } po\IeC {\v z}adavky}{21}{section.3.3}}
\@writefile{toc}{\contentsline {section}{\numberline {3.4}P\IeC {\v r}\IeC {\'\i }pady u\IeC {\v z}it\IeC {\'\i }}{21}{section.3.4}}
\@writefile{lof}{\contentsline {figure}{\numberline {3.1}{\ignorespaces P\IeC {\v r}\IeC {\'\i }pady u\IeC {\v z}it\IeC {\'\i }\relax }}{22}{figure.3.1}}
\newlabel{usecase}{{3.1}{22}{Případy užití\relax }{figure.3.1}{}}
\@writefile{toc}{\contentsline {section}{\numberline {3.5}Sc\IeC {\'e}n\IeC {\'a}\IeC {\v r}e p\IeC {\v r}\IeC {\'\i }pad\IeC {\r u} u\IeC {\v z}it\IeC {\'\i }}{22}{section.3.5}}
\@writefile{toc}{\contentsline {subsubsection}{FR01.1 Vytvo\IeC {\v r}en\IeC {\'\i } dotazn\IeC {\'\i }ku}{22}{section.3.5}}
\@writefile{toc}{\contentsline {subsubsection}{FR01.2 \IeC {\'U}prava dotazn\IeC {\'\i }ku}{22}{Item.3}}
\@writefile{toc}{\contentsline {subsubsection}{FR01.3 Smaz\IeC {\'a}n\IeC {\'\i } dotazn\IeC {\'\i }ku}{23}{Item.6}}
\@writefile{toc}{\contentsline {subsubsection}{FR02.1 P\IeC {\v r}idat ot\IeC {\'a}zku}{23}{Item.12}}
\@writefile{toc}{\contentsline {subsubsection}{FR02.2 Upravit ot\IeC {\'a}zku}{24}{Item.16}}
\@writefile{toc}{\contentsline {subsubsection}{FR02.3 Odstranit ot\IeC {\'a}zku}{24}{Item.19}}
\@writefile{toc}{\contentsline {subsubsection}{FR03.1 P\IeC {\v r}idat odpov\IeC {\v e}\IeC {\v d}}{24}{Item.25}}
\@writefile{toc}{\contentsline {subsubsection}{FR03.2 Upravit odpov\IeC {\v e}\IeC {\v d}}{25}{Item.31}}
\@writefile{toc}{\contentsline {subsubsection}{FR03.3 Odstranit odpov\IeC {\v e}\IeC {\v d}}{25}{Item.34}}
\@writefile{toc}{\contentsline {subsubsection}{FR04 Logika pr\IeC {\r u}chodu}{25}{Item.40}}
\@writefile{toc}{\contentsline {subsubsection}{FR05.1 Zobrazit v\IeC {\'y}sledky}{26}{Item.43}}
\@writefile{toc}{\contentsline {subsubsection}{FR05.2 Export v\IeC {\'y}sledk\IeC {\r u}}{26}{Item.45}}
\@writefile{toc}{\contentsline {subsubsection}{FR06 Na\IeC {\v c}ten\IeC {\'\i } dotazn\IeC {\'\i }ku}{26}{Item.48}}
\@writefile{toc}{\contentsline {subsubsection}{FR07 Ulo\IeC {\v z}en\IeC {\'\i } dotazn\IeC {\'\i }ku dotazn\IeC {\'\i }ku}{26}{Item.53}}
\@writefile{toc}{\contentsline {subsubsection}{FR08 Zobrazen\IeC {\'\i } dotazn\IeC {\'\i }k\IeC {\r u}}{27}{Item.60}}
\@writefile{toc}{\contentsline {subsubsection}{FR09.1 Vypln\IeC {\v e}n\IeC {\'\i } dotazn\IeC {\'\i }ku}{27}{Item.62}}
\@writefile{toc}{\contentsline {subsubsection}{FR09.2 Odpov\IeC {\v e}\IeC {\v d} na ot\IeC {\'a}zku}{27}{Item.64}}
\@writefile{toc}{\contentsline {subsubsection}{FR10 Odeslat k~vyhodnocen\IeC {\'\i }}{27}{Item.67}}
\citation{url:classdiagrams}
\@writefile{toc}{\contentsline {subsubsection}{FR11 Ulo\IeC {\v z}en\IeC {\'\i } v\IeC {\'y}sledk\IeC {\r u}}{28}{Item.74}}
\@writefile{toc}{\contentsline {section}{\numberline {3.6}Diagram t\IeC {\v r}\IeC {\'\i }d}{28}{section.3.6}}
\@writefile{lof}{\contentsline {figure}{\numberline {3.2}{\ignorespaces Diagram t\IeC {\v r}\IeC {\'\i }d\relax }}{29}{figure.3.2}}
\newlabel{classdiagram}{{3.2}{29}{Diagram tříd\relax }{figure.3.2}{}}
\@writefile{toc}{\contentsline {subsection}{\numberline {3.6.1}Popis diagramu t\IeC {\v r}\IeC {\'\i }d}{29}{subsection.3.6.1}}
\citation{book:Mlynkova2008}
\citation{url:json}
\@writefile{toc}{\contentsline {section}{\numberline {3.7}Soubor dotazn\IeC {\'\i }ku}{31}{section.3.7}}
\@writefile{toc}{\contentsline {subsection}{\numberline {3.7.1}Popis XML (Extensible Markup language)}{31}{subsection.3.7.1}}
\@writefile{toc}{\contentsline {subsubsection}{P\IeC {\v r}\IeC {\'\i }klad XML form\IeC {\'a}tu}{31}{subsubsection*.5}}
\@writefile{toc}{\contentsline {subsubsection}{P\IeC {\v r}\IeC {\'\i }klad XML form\IeC {\'a}tu}{31}{subsubsection*.5}}
\@writefile{toc}{\contentsline {subsection}{\numberline {3.7.2}Popis JSON (JavaScript Object Notation)}{31}{subsection.3.7.2}}
\@writefile{toc}{\contentsline {subsubsection}{P\IeC {\v r}\IeC {\'\i }klad form\IeC {\'a}tu}{31}{subsubsection*.6}}
\citation{url:aes}
\@writefile{toc}{\contentsline {subsubsection}{P\IeC {\v r}\IeC {\'\i }klad form\IeC {\'a}tu}{32}{subsubsection*.6}}
\@writefile{toc}{\contentsline {subsection}{\numberline {3.7.3}Volba form\IeC {\'a}tu}{32}{subsection.3.7.3}}
\@writefile{toc}{\contentsline {subsection}{\numberline {3.7.4}Zp\IeC {\r u}sob ukl\IeC {\'a}d\IeC {\'a}n\IeC {\'\i }}{32}{subsection.3.7.4}}
\@writefile{toc}{\contentsline {subsection}{\numberline {3.7.5}Popis AES (Advanced Encryption Standard)}{32}{subsection.3.7.5}}
\@writefile{toc}{\contentsline {section}{\numberline {3.8}Shrnut\IeC {\'\i } anal\IeC {\'y}zy a n\IeC {\'a}vrhu syst\IeC {\'e}mu}{33}{section.3.8}}
\citation{book:wpf}
\citation{url:mvvm}
\@writefile{toc}{\contentsline {chapter}{\numberline {4}Implementace}{35}{chapter.4}}
\@writefile{lof}{\addvspace {10\p@ }}
\@writefile{lot}{\addvspace {10\p@ }}
\@writefile{toc}{\contentsline {section}{\numberline {4.1}Pou\IeC {\v z}it\IeC {\'a} technologie}{35}{section.4.1}}
\@writefile{toc}{\contentsline {section}{\numberline {4.2}Struktura aplikace}{35}{section.4.2}}
\@writefile{toc}{\contentsline {section}{\numberline {4.3}Probl\IeC {\'e}my p\IeC {\v r}i implementaci}{36}{section.4.3}}
\@writefile{toc}{\contentsline {chapter}{\numberline {5}U\IeC {\v z}ivatelsk\IeC {\'e} testov\IeC {\'a}n\IeC {\'\i }}{37}{chapter.5}}
\@writefile{lof}{\addvspace {10\p@ }}
\@writefile{lot}{\addvspace {10\p@ }}
\@writefile{toc}{\contentsline {section}{\numberline {5.1}Popis testov\IeC {\'a}n\IeC {\'\i }}{37}{section.5.1}}
\@writefile{toc}{\contentsline {subsection}{\numberline {5.1.1}Pre-test dotazn\IeC {\'\i }k}{37}{subsection.5.1.1}}
\@writefile{toc}{\contentsline {subsection}{\numberline {5.1.2}Post-test dotazn\IeC {\'\i }k}{38}{subsection.5.1.2}}
\@writefile{toc}{\contentsline {section}{\numberline {5.2}Testov\IeC {\'a}n\IeC {\'\i } s~u\IeC {\v z}ivateli}{38}{section.5.2}}
\@writefile{toc}{\contentsline {subsection}{\numberline {5.2.1}Participant 1}{38}{subsection.5.2.1}}
\@writefile{toc}{\contentsline {subsection}{\numberline {5.2.2}Participant 2}{38}{subsection.5.2.2}}
\@writefile{toc}{\contentsline {subsection}{\numberline {5.2.3}Participant 3}{38}{subsection.5.2.3}}
\@writefile{toc}{\contentsline {subsection}{\numberline {5.2.4}Participant 4}{39}{subsection.5.2.4}}
\@writefile{toc}{\contentsline {subsection}{\numberline {5.2.5}Participant 5}{39}{subsection.5.2.5}}
\@writefile{toc}{\contentsline {section}{\numberline {5.3}Vyhodnocen\IeC {\'\i } v\IeC {\'y}sledk\IeC {\r u} testov\IeC {\'a}n\IeC {\'\i }}{39}{section.5.3}}
\bibstyle{unsrt}
\bibdata{letsee}
\@writefile{toc}{\contentsline {chapter}{\numberline {6}Z\IeC {\'a}v\IeC {\v e}r}{41}{chapter.6}}
\@writefile{lof}{\addvspace {10\p@ }}
\@writefile{lot}{\addvspace {10\p@ }}
\@writefile{toc}{\contentsline {section}{\numberline {6.1}Zhodnocen\IeC {\'\i }}{41}{section.6.1}}
\bibcite{book:Disman}{1}
\bibcite{book:Tahal}{2}
\bibcite{book:Payne}{3}
\bibcite{book:Svaricek}{4}
\bibcite{book:Punch}{5}
\bibcite{url:management}{6}
\bibcite{book:Rezankova}{7}
\bibcite{url:Kohoutek}{8}
\bibcite{url:dotaznik}{9}
\bibcite{url:centrum}{10}
\bibcite{url:Rod}{11}
\bibcite{url:Brooke}{12}
\bibcite{url:Sporka}{13}
\@writefile{toc}{\contentsline {chapter}{\numberline {A}Literatura}{43}{appendix.A}}
\@writefile{lof}{\addvspace {10\p@ }}
\@writefile{lot}{\addvspace {10\p@ }}
\bibcite{url:Belbin}{14}
\bibcite{url:Lucka}{15}
\bibcite{url:Booch}{16}
\bibcite{book:Jacobson}{17}
\bibcite{url:Robertson}{18}
\bibcite{url:framework}{19}
\bibcite{book:Bittner}{20}
\bibcite{url:classdiagrams}{21}
\bibcite{book:Mlynkova2008}{22}
\bibcite{url:json}{23}
\bibcite{url:aes}{24}
\bibcite{book:wpf}{25}
\bibcite{url:mvvm}{26}
\@writefile{toc}{\contentsline {chapter}{\numberline {B}U\IeC {\v z}ivatelsk\IeC {\'y} manu\IeC {\'a}l}{45}{appendix.B}}
\@writefile{lof}{\addvspace {10\p@ }}
\@writefile{lot}{\addvspace {10\p@ }}
\@writefile{toc}{\contentsline {section}{\IeC {\'U}vod}{45}{section*.7}}
\@writefile{toc}{\contentsline {section}{Instalace aplikace}{45}{section*.7}}
\@writefile{toc}{\contentsline {section}{Popis aplikace}{46}{section*.7}}
\@writefile{lof}{\contentsline {figure}{\numberline {B.1}{\ignorespaces \IeC {\'U}vodn\IeC {\'\i } str\IeC {\'a}nka\relax }}{46}{figure.B.1}}
\newlabel{Main}{{B.1}{46}{Úvodní stránka\relax }{figure.B.1}{}}
\@writefile{lof}{\contentsline {figure}{\numberline {B.2}{\ignorespaces Autoriza\IeC {\v c}n\IeC {\'\i } okno\relax }}{47}{figure.B.2}}
\newlabel{Aut}{{B.2}{47}{Autorizační okno\relax }{figure.B.2}{}}
\@writefile{lof}{\contentsline {figure}{\numberline {B.3}{\ignorespaces Zm\IeC {\v e}na hesla\relax }}{48}{figure.B.3}}
\newlabel{changePass}{{B.3}{48}{Změna hesla\relax }{figure.B.3}{}}
\@writefile{lof}{\contentsline {figure}{\numberline {B.4}{\ignorespaces Spr\IeC {\'a}vce dotazn\IeC {\'\i }k\IeC {\r u}\relax }}{49}{figure.B.4}}
\newlabel{Sp}{{B.4}{49}{Správce dotazníků\relax }{figure.B.4}{}}
\@writefile{lof}{\contentsline {figure}{\numberline {B.5}{\ignorespaces Editor - hlavn\IeC {\'\i } sekce\relax }}{50}{figure.B.5}}
\newlabel{EditMain}{{B.5}{50}{Editor - hlavní sekce\relax }{figure.B.5}{}}
\@writefile{lof}{\contentsline {figure}{\numberline {B.6}{\ignorespaces Editor - dal\IeC {\v s}\IeC {\'\i } sekce\relax }}{51}{figure.B.6}}
\newlabel{EditQ}{{B.6}{51}{Editor - další sekce\relax }{figure.B.6}{}}
\@writefile{lof}{\contentsline {figure}{\numberline {B.7}{\ignorespaces Vytv\IeC {\'a}\IeC {\v r}en\IeC {\'\i } logick\IeC {\'e}ho pr\IeC {\r u}chodu\relax }}{52}{figure.B.7}}
\newlabel{Logic}{{B.7}{52}{Vytváření logického průchodu\relax }{figure.B.7}{}}
\@writefile{lof}{\contentsline {figure}{\numberline {B.8}{\ignorespaces Spr\IeC {\'a}vce dotazn\IeC {\'\i }ku - vytvo\IeC {\v r}en\IeC {\'y} dotazn\IeC {\'\i }k\relax }}{54}{figure.B.8}}
\newlabel{SpDot}{{B.8}{54}{Správce dotazníku - vytvořený dotazník\relax }{figure.B.8}{}}
\@writefile{lof}{\contentsline {figure}{\numberline {B.9}{\ignorespaces V\IeC {\'y}sledky\relax }}{55}{figure.B.9}}
\newlabel{Res}{{B.9}{55}{Výsledky\relax }{figure.B.9}{}}
\@writefile{toc}{\contentsline {section}{Jak pracovat se soubory dotazn\IeC {\'\i }ku}{57}{figure.B.9}}
\@writefile{toc}{\contentsline {chapter}{\numberline {C}Ot\IeC {\'a}zky pro participanty testov\IeC {\'a}n\IeC {\'\i }}{59}{appendix.C}}
\@writefile{lof}{\addvspace {10\p@ }}
\@writefile{lot}{\addvspace {10\p@ }}
\newlabel{tasks}{{C}{59}{Otázky pro participanty testování}{appendix.C}{}}
\@writefile{toc}{\contentsline {chapter}{\numberline {D}V\IeC {\'y}sledky testu pou\IeC {\v z}itelnosti}{61}{appendix.D}}
\@writefile{lof}{\addvspace {10\p@ }}
\@writefile{lot}{\addvspace {10\p@ }}
\@writefile{lot}{\contentsline {table}{\numberline {D.1}{\ignorespaces V\IeC {\'y}sledky participant\IeC {\r u}\relax }}{61}{table.D.1}}
\newlabel{susRes}{{D.1}{61}{Výsledky participantů\relax }{table.D.1}{}}
