\relax 
\providecommand\hyper@newdestlabel[2]{}
\providecommand\HyperFirstAtBeginDocument{\AtBeginDocument}
\HyperFirstAtBeginDocument{\ifx\hyper@anchor\@undefined
\global\let\oldcontentsline\contentsline
\gdef\contentsline#1#2#3#4{\oldcontentsline{#1}{#2}{#3}}
\global\let\oldnewlabel\newlabel
\gdef\newlabel#1#2{\newlabelxx{#1}#2}
\gdef\newlabelxx#1#2#3#4#5#6{\oldnewlabel{#1}{{#2}{#3}}}
\AtEndDocument{\ifx\hyper@anchor\@undefined
\let\contentsline\oldcontentsline
\let\newlabel\oldnewlabel
\fi}
\fi}
\global\let\hyper@last\relax 
\gdef\HyperFirstAtBeginDocument#1{#1}
\providecommand\HyField@AuxAddToFields[1]{}
\providecommand\HyField@AuxAddToCoFields[2]{}
\@writefile{lof}{\contentsline {figure}{\numberline {1}{\ignorespaces \IeC {\'U}vodn\IeC {\'\i } str\IeC {\'a}nka\relax }}{3}{figure.caption.4}}
\providecommand*\caption@xref[2]{\@setref\relax\@undefined{#1}}
\newlabel{Main}{{1}{3}{Úvodní stránka\relax }{figure.caption.4}{}}
\@writefile{lof}{\contentsline {figure}{\numberline {2}{\ignorespaces Autoriza\IeC {\v c}n\IeC {\'\i } okno\relax }}{4}{figure.caption.5}}
\newlabel{Aut}{{2}{4}{Autorizační okno\relax }{figure.caption.5}{}}
\@writefile{lof}{\contentsline {figure}{\numberline {3}{\ignorespaces Zm\IeC {\v e}na hesla\relax }}{5}{figure.caption.6}}
\newlabel{changePass}{{3}{5}{Změna hesla\relax }{figure.caption.6}{}}
\@writefile{lof}{\contentsline {figure}{\numberline {4}{\ignorespaces Spr\IeC {\'a}vce dotazn\IeC {\'\i }k\IeC {\r u}\relax }}{6}{figure.caption.7}}
\newlabel{Sp}{{4}{6}{Správce dotazníků\relax }{figure.caption.7}{}}
\@writefile{lof}{\contentsline {figure}{\numberline {5}{\ignorespaces Editor - hlavn\IeC {\'\i } sekce\relax }}{7}{figure.caption.8}}
\newlabel{EditMain}{{5}{7}{Editor - hlavní sekce\relax }{figure.caption.8}{}}
\@writefile{lof}{\contentsline {figure}{\numberline {6}{\ignorespaces Editor - dal\IeC {\v s}\IeC {\'\i } sekce\relax }}{8}{figure.caption.9}}
\newlabel{EditQ}{{6}{8}{Editor - další sekce\relax }{figure.caption.9}{}}
\@writefile{lof}{\contentsline {figure}{\numberline {7}{\ignorespaces Vytv\IeC {\'a}\IeC {\v r}en\IeC {\'\i } logick\IeC {\'e}ho pr\IeC {\r u}chodu\relax }}{9}{figure.caption.10}}
\newlabel{Logic}{{7}{9}{Vytváření logického průchodu\relax }{figure.caption.10}{}}
\@writefile{lof}{\contentsline {figure}{\numberline {8}{\ignorespaces Spr\IeC {\'a}vce dotazn\IeC {\'\i }ku - vytvo\IeC {\v r}en\IeC {\'y} dotazn\IeC {\'\i }k\relax }}{11}{figure.caption.11}}
\newlabel{SpDot}{{8}{11}{Správce dotazníku - vytvořený dotazník\relax }{figure.caption.11}{}}
\@writefile{lof}{\contentsline {figure}{\numberline {9}{\ignorespaces V\IeC {\'y}sledky\relax }}{12}{figure.caption.12}}
\newlabel{Res}{{9}{12}{Výsledky\relax }{figure.caption.12}{}}
